<?xml version="1.0" encoding="UTF-8" standalone="no"?>
<svg
   xmlns:dc="http://purl.org/dc/elements/1.1/"
   xmlns:cc="http://creativecommons.org/ns#"
   xmlns:rdf="http://www.w3.org/1999/02/22-rdf-syntax-ns#"
   xmlns:svg="http://www.w3.org/2000/svg"
   xmlns="http://www.w3.org/2000/svg"
   xmlns:sodipodi="http://sodipodi.sourceforge.net/DTD/sodipodi-0.dtd"
   xmlns:inkscape="http://www.inkscape.org/namespaces/inkscape"
   version="1.1"
   id="svg1"
   width="16"
   height="16"
   viewBox="0 0 16 16"
   sodipodi:docname="align-horizontal-right-symbolic.svg"
   inkscape:version="1.0alpha2 (e9298ea62f, 2019-07-05, custom)">
<style id="style0001">
.success{fill:#33d17a}
.warning{fill:#f57900}
.danger{fill:#cc0000}
</style>
 
  
<metadata
     id="metadata502">
    <rdf:RDF>
      <cc:Work
         rdf:about="">
        <dc:format>image/svg+xml</dc:format>
        <dc:type
           rdf:resource="http://purl.org/dc/dcmitype/StillImage" />
      </cc:Work>
    </rdf:RDF>
  </metadata>
  <defs
     id="defs500" />
  <sodipodi:namedview
     objecttolerance="10"
     gridtolerance="10"
     guidetolerance="10"
     id="namedview"
     showgrid="true"
     inkscape:zoom="31.5625"
     inkscape:cx="8"
     inkscape:cy="8"
     inkscape:window-width="1360"
     inkscape:window-height="704"
     inkscape:window-x="0"
     inkscape:window-y="27"
     inkscape:window-maximized="1"
     inkscape:current-layer="svg1"
     inkscape:document-rotation="0"
     inkscape:snap-global="false">
    <inkscape:grid
       type="xygrid"
       id="grid" />
  </sodipodi:namedview>
  <g
     transform="matrix(0.666667,0,0,0.666666,-772,-396.90779)"
     inkscape:label="00273"
     id="align-horizontal-right">
    <g
       inkscape:label="#al_left_in"
       id="g22329"
       transform="matrix(-1,0,0,1,2264,0)">
      <g
         id="g22331">
        <path
           inkscape:connector-curvature="0"
           id="rect22333"
           d="m -1106,595.36218 h 24 v 24 h -24 z"
           style="opacity:0;fill:none"
           transform="scale(-1,1)" />
        <path
           inkscape:connector-curvature="0"
           id="rect22335"
           d="m 1086,595.36218 h -1.5 v 24 h 1.5 z"
           style="opacity:1;stroke-width:1.22474"
           class="success" />
        <path
           inkscape:connector-curvature="0"
           id="rect22337"
           d="m -1103,595.36218 h 16 v 5 h -16 z"
           style="opacity:1"
           transform="scale(-1,1)" />
        <path
           inkscape:connector-curvature="0"
           id="rect22339"
           d="m -1097,602.36218 h 10 v 3.00001 h -10 z"
           style="opacity:1"
           transform="scale(-1,1)" />
        <path
           inkscape:connector-curvature="0"
           id="rect22341"
           d="m -1101,607.36218 h 14 v 4 h -14 z"
           style="opacity:1"
           transform="scale(-1,1)" />
        <path
           class="warning"
           transform="matrix(-1.4999993,0,0,1.5000015,1106.0006,595.36228)"
           d="M 10.667969 12 L 10.667969 13.333984 L 4.6679688 13.333984 L 4.6679688 14.666016 L 10.667969 14.666016 L 10.667969 16 L 12.667969 14 L 10.667969 12 z "
           style="opacity:1;stroke-width:0.666667"
           id="path22343" />
      </g>
    </g>
  </g>
</svg>
