<?xml version="1.0" encoding="UTF-8" standalone="no"?>
<svg
   xmlns:dc="http://purl.org/dc/elements/1.1/"
   xmlns:cc="http://creativecommons.org/ns#"
   xmlns:rdf="http://www.w3.org/1999/02/22-rdf-syntax-ns#"
   xmlns:svg="http://www.w3.org/2000/svg"
   xmlns="http://www.w3.org/2000/svg"
   xmlns:xlink="http://www.w3.org/1999/xlink"
   xmlns:sodipodi="http://sodipodi.sourceforge.net/DTD/sodipodi-0.dtd"
   xmlns:inkscape="http://www.inkscape.org/namespaces/inkscape"
   version="1.1"
   id="svg1"
   width="16"
   height="16"
   viewBox="0 0 16 16"
   sodipodi:docname="distribute-horizontal-center-symbolic.svg"
   inkscape:version="1.0alpha2 (e9bc48ab64, 2019-07-09)">
<style id="style0001">
.success{fill:#33d17a}
.warning{fill:#f57900}
.danger{fill:#cc0000}
</style>
  
<metadata
     id="metadata2524">
    <rdf:RDF>
      <cc:Work
         rdf:about="">
        <dc:format>image/svg+xml</dc:format>
        <dc:type
           rdf:resource="http://purl.org/dc/dcmitype/StillImage" />
      </cc:Work>
    </rdf:RDF>
  </metadata>
  <defs
     id="defs2522" />
  <sodipodi:namedview
     objecttolerance="10"
     gridtolerance="10"
     guidetolerance="10"
     id="namedview"
     showgrid="true"
     inkscape:zoom="31.5625"
     inkscape:cx="8"
     inkscape:cy="8"
     inkscape:window-width="1360"
     inkscape:window-height="704"
     inkscape:window-x="0"
     inkscape:window-y="27"
     inkscape:window-maximized="1"
     inkscape:current-layer="svg1"
     inkscape:document-rotation="0"
     inkscape:snap-global="false">
    <inkscape:grid
       type="xygrid"
       id="grid" />
  </sodipodi:namedview>
  <g
     transform="matrix(0.666667,0,0,0.666653,-721.334,-472.23122)"
     inkscape:label="00280"
     id="distribute-horizontal-center">
    <use
       height="1250"
       width="1250"
       transform="matrix(1,0,0,0.5000175,51.00122,354.1682)"
       id="use18671"
       y="0"
       x="0"
       xlink:href="#path5265" />
    <path
       inkscape:connector-curvature="0"
       style="opacity:1;stroke-width:1.22474"
       d="m 1087.778,708.3622 v 0.4615 11.0769 0.4616 h 1.5 v -0.4616 -11.0769 -0.4615 z"
       id="path18673"
       class="success" />
    <path
       inkscape:connector-curvature="0"
       style="opacity:1"
       d="m 1085,717.3622 v 15 h 7 v -15 h -2.031 v 4.0312 h -2.906 v -4.0312 z"
       id="rect18675" />
    <path
       inkscape:connector-curvature="0"
       style="opacity:1"
       d="m 1098,717.3622 v 9 h 5 v -9 h -1 v 4 h -3 v -4 z"
       id="rect18677" />
    <path
       inkscape:connector-curvature="0"
       id="rect18679"
       d="m 1082.001,708.36218 h 24 v 24 h -24 z"
       style="opacity:0;fill:none" />
    <path
       sodipodi:nodetypes="ccccccccccc"
       inkscape:connector-curvature="0"
       style="opacity:1;stroke-width:0.866237"
       d="m 1092.0449,714.96091 -2.5987,-2.59871 2.5987,-2.59871 v 1.73247 h 4.8343 v -1.73247 l 2.5987,2.59871 -2.5987,2.59871 v -1.73247 h -4.8343 z"
       id="path18683"
       class="warning" />
    <path
       class="success"
       id="path740"
       d="m 1099.798,708.3622 v 0.4615 11.0769 0.4616 h 1.5 v -0.4616 -11.0769 -0.4615 z"
       style="opacity:1;stroke-width:1.22474"
       inkscape:connector-curvature="0" />
  </g>
</svg>
