<?xml version='1.0' encoding='UTF-8'?>
<!-- Created with Inkscape (http://www.inkscape.org/) and export_objects.py -->
<svg xmlns:cc="http://creativecommons.org/ns#" xmlns:dc="http://purl.org/dc/elements/1.1/" xmlns:inkscape="http://www.inkscape.org/namespaces/inkscape" xmlns:rdf="http://www.w3.org/1999/02/22-rdf-syntax-ns#" xmlns:sodipodi="http://sodipodi.sourceforge.net/DTD/sodipodi-0.dtd" xmlns:xlink="http://www.w3.org/1999/xlink" xmlns="http://www.w3.org/2000/svg" version="1.1" id="svg1" width="16" height="16" viewBox="0 0 16 16" sodipodi:docname="distribute-graph-symbolic.svg">
<style id="style0001">
.success{fill:#33d17a}
.warning{fill:#f57900}
.danger{fill:#cc0000}
</style><sodipodi:namedview objecttolerance="10" gridtolerance="10" guidetolerance="10" id="namedview" showgrid="true" inkscape:zoom="0.6002936" inkscape:cx="732.67439" inkscape:cy="-567.94603" inkscape:window-width="1920" inkscape:window-height="1016" inkscape:window-x="0" inkscape:window-y="27" inkscape:window-maximized="1" inkscape:current-layer="layer1">
    <inkscape:grid type="xygrid" id="grid"/>
  </sodipodi:namedview>
  <g transform="matrix(0.666667,0,0,0.666667,-746.66667,-548.90812)" inkscape:label="00291" id="distribute-graph">
      <path inkscape:connector-curvature="0" id="rect19372" d="m 1120.9714,823.36218 h 22.0572 c 0.5382,0 0.9714,0.43325 0.9714,0.97141 v 22.05718 c 0,0.53816 -0.4332,0.97141 -0.9714,0.97141 h -22.0572 c -0.5382,0 -0.9714,-0.43325 -0.9714,-0.97141 v -22.05718 c 0,-0.53816 0.4332,-0.97141 0.9714,-0.97141 z" style="opacity:0;fill:none"/>
      <path inkscape:connector-curvature="0" id="path19374" d="m 1125,320 a 2,2 0 0 1 -1.9929,1.99999 2,2 0 0 1 -2.007,-1.98571 2,2 0 0 1 1.9785,-2.01417 2,2 0 0 1 2.0212,1.97132 L 1123,320 Z" style="opacity:1" transform="translate(-1,511.3622)"/>
      <path inkscape:connector-curvature="0" id="path19376" d="m 1125,320 a 2,2 0 0 1 -1.9929,1.99999 2,2 0 0 1 -2.007,-1.98571 2,2 0 0 1 1.9785,-2.01417 2,2 0 0 1 2.0212,1.97132 L 1123,320 Z" style="opacity:1" transform="translate(4,505.3622)"/>
      <path inkscape:connector-curvature="0" id="path19378" d="m 1125,320 a 2,2 0 0 1 -1.9929,1.99999 2,2 0 0 1 -2.007,-1.98571 2,2 0 0 1 1.9785,-2.01417 2,2 0 0 1 2.0212,1.97132 L 1123,320 Z" style="opacity:1" transform="translate(13.0002,507.3908)"/>
      <path inkscape:connector-curvature="0" id="path19380" d="m 1125,320 a 2,2 0 0 1 -1.9929,1.99999 2,2 0 0 1 -2.007,-1.98571 2,2 0 0 1 1.9785,-2.01417 2,2 0 0 1 2.0212,1.97132 L 1123,320 Z" style="opacity:1" transform="translate(12,515.3622)"/>
      <path inkscape:connector-curvature="0" id="path19384" d="m 1125,320 a 2,2 0 0 1 -1.9929,1.99999 2,2 0 0 1 -2.007,-1.98571 2,2 0 0 1 1.9785,-2.01417 2,2 0 0 1 2.0212,1.97132 L 1123,320 Z" style="opacity:1" transform="translate(4,517.3622)"/>
      <path inkscape:connector-curvature="0" id="path19387" d="m 1125,320 a 2,2 0 0 1 -1.9929,1.99999 2,2 0 0 1 -2.007,-1.98571 2,2 0 0 1 1.9785,-2.01417 2,2 0 0 1 2.0212,1.97132 L 1123,320 Z" style="opacity:1" transform="translate(17,523.3622)"/>
      <path inkscape:connector-curvature="0" id="path19391" d="m 1126.8066,824.79492 -5.4726,6.56641 5.4785,6.57422 8.6523,-2.16211 0.043,-0.34766 1.0567,-8.46094 z m 0.3868,1.13477 8.2421,1.83008 -0.9003,7.1914 -7.3477,1.83789 -4.5215,-5.42773 z" style="opacity:1;stroke-linecap:butt"/>
      <path inkscape:connector-curvature="0" id="path19394" d="m 1135.4238,835.09766 -0.8476,0.52929 4.6347,7.41602 -7.332,1.83398 0.2422,0.97071 8.668,-2.16797 z" style="opacity:1;stroke-linecap:butt"/>
      <path inkscape:connector-curvature="0" id="path19396" d="m 1135,333.5 a 2,1.5 0 0 1 -1.9929,1.49999 2,1.5 0 0 1 -2.007,-1.48928 2,1.5 0 0 1 1.9785,-1.51062 2,1.5 0 0 1 2.0212,1.47848 L 1133,333.5 Z" style="opacity:1" transform="matrix(0.9886057,0,0,1.325734,11.90974,403.2185)"/>
    </g>
    </svg>
